1 10 20
100 200 125
201 210 89
900 1000 174
91809 218002 386
397537 51735 443
241509 257915 363
336227 998961 525
247155 598457 470
939751 174826 525
976242 822680 525
215519 278669 443
229962 77514 386
89984 142309 354
673903 665884 398
19931 835826 509
73483 864792 525
95008 504987 449
153350 404080 443
9998 44471 324
117422 292243 443
298685 598611 470
363903 140393 443
897360 508839 525
631941 394190 509
291362 206967 443
151896 874271 525
971383 906164 507
333258 349047 441
506250 80618 449
14659 254741 443
481684 727735 509
684609 845591 525
970436 542248 525
904136 578173 525
372326 833989 509
550460 673348 509
455666 575814 470
392803 42861 443
970971 538575 525
702477 186544 509
943047 369608 525
130140 70067 354
114514 539188 470
139478 31924 354
121666 281318 443
521151 824994 509
866100 495779 525
780490 699951 504
955551 314158 525
921928 689618 525
318858 701065 509
711335 730806 411
231972 9726 443
135954 947186 525
6487 798667 509
622659 479551 470
956499 87167 525
347652 729208 509
511970 2160 470
657176 359964 509
243226 286948 407
260780 1846 443
413289 908034 525
493663 411314 444
518972 695097 509
345614 622782 470
914493 27365 525
609916 838765 525
32141 59929 340
946816 719549 525
613588 124987 470
548130 228201 470
688449 624579 509
660654 937687 525
141229 377150 443
175239 298933 443
309703 449932 449
516443 75976 470
109618 198761 383
634682 476011 509
426931 614283 470
31119 2849 308
220665 742156 509
928420 646018 525
923368 940636 507
310564 535653 470
91976 138 351
212533 273596 443
629967 269517 509
945819 320623 525
54223 32067 340
343813 239801 407
287973 488 443
263826 52006 443
752923 378302 509
809146 424861 509
843105 632747 525
873914 1496 525
946345 599589 525
895400 57384 525
225092 809618 509
596600 101158 470
316166 633682 509
825085 798697 450
997555 496489 525
117393 878672 525
56605 30172 340
154296 304260 443
356 817343 509
502299 96804 449
518888 129282 470
329137 390950 441
279721 320694 389
66539 86146 351
964682 507292 525
437456 68980 449
840675 691922 525
53151 50595 340
416386 99494 449
447320 967556 525
476543 483871 413
759042 602998 509
589946 615551 447
844646 65181 525
809941 822599 450
866145 844370 419
500998 45252 449
930169 165916 525
602391 505681 470
325191 862116 525
92419 66267 351
906488 658132 525
570637 180065 470
219582 269103 443
63992 79400 351
963128 169605 525
790913 861285 525
2525 823949 509
995157 727399 525
585062 250053 470
140013 116606 344
294948 280739 389
511402 24450 449
459369 587551 470
389865 314429 441
829578 697142 504
984134 275568 525
1616 37855 324
35532 892852 525
354172 883201 525
369705 147965 443
671370 561295 509
534590 282201 470
944984 897419 507
337781 355545 441
98170 5980 351
911518 512045 525
13291 916635 525
805856 721574 468
598985 869066 525
523811 568016 452
92209 63940 351
355565 396424 436
600116 443659 470
561492 835965 509
297062 423878 449
836259 787203 468
677087 403964 509
125945 89073 354
517099 649002 509
753203 973748 525
410198 267248 449
899813 514759 525
114489 503006 449
610692 967499 525
402020 449542 449
60625 88311 351
882993 827638 525
494908 662895 509
488166 60515 449
426744 546019 470
985949 493913 525
405466 189390 443
66871 428562 449
920477 623746 525
255078 610064 470
955934 280150 525
599761 796541 509
609207 748926 509
407749 118616 443
936633 64776 525
65746 894683 525
863307 130425 525
815872 313470 509
534050 445014 470
146575 768838 509
598150 229231 470
292052 182546 443
715532 795201 468
787823 289150 509
230288 81943 386
98007 42665 351
495733 776662 509
